Setting number to 23: 23
Retrieving that number: 23
Setting up a grid and assigning it: (grid (pair bar "BAR") (pair foo "FOO"))
Retrieving that same grid: (grid (pair bar "BAR") (pair foo "FOO"))
Getting a value from it: FOO
Getting value from non-grid: (error "Illegal 'dot' operation in" 123)
Attempting set an ampy var: (error "Cannot assign symbols starting with ampersands.")
Setting a rational number: (number 785399 250000)
Getting that rational numer: (number 785399 250000)
Using a let expression with parens...
4
5
(number 785399 250000)
(number 3035399 250000)
Using a let expression with braces...
8
7
23
38
Attempting to reference something that died in a let scope: nil
Getting ampy literal: &literal
Setting a lambda: (def (x y) (+ 3 x y))
Getting that lambda: (def (x y) (+ 3 x y))
Getting it by its def name: (def (x y) (+ 3 x y))
Defining a procedure: (def (x y z) (+ (+ x 1) (+ y 2) (+ z 3)))
Referencing it by def name: (def (x y z) (+ (+ x 1) (+ y 2) (+ z 3)))
Assigning return value of that procedure to a variable: 12
Referencing that variable: 12
Defining a macro: (mac (x) (pair 2 x))
Referencing it by its name: (mac (x) (pair 2 x))
Assigning the output of that macro to a variable: (2 3 4)
Retrieving that value: (2 3 4)
Watching that macro take a different form: (pair 2 3)
(&lambda (x y z) (&add-numbers x y z x x x))
21
Type for 'foo' type:text
"type:text"
Type for 44 type:number
"type:number"
Type for {foo:3, bar:4} type:grid
"type:grid"
Type for (pair x 5) type:pair
"type:pair"
Type for [1 2 3] type:list
"type:list"
Type for nil nil
nil
Is 'apply' defined? true
Is 'fn8ofpun8fo' defined? nil
Some number 23
Trampling: 122
New value: 122
Trampling again 222
Inner trample: 22
aaa shouldn't exist: nil
Shouldn't set ampy proc names (error "Procedure/macro names should not begin with &" (def &yay (x) x))
