(true? true) = true
(true? 10) = true
(true? 10 true) = true
(true? nil) = nil
(true? true nil true) = nil
(and true) = true
(and true 11) = 11
(and true nil 11) = nil
(= 1 1) = true
(= 1 1 1 1 1 1 1) = true
(= (number 1 2) (number 2 4) (number 3 6)) = true
(= 1 2) = nil
(= 1 1 1 1 2 1) = nil
(= 1 true 1) = nil
(= (number 2 3) (number 1 4)) = nil
(= "foo" "foo" "foo") = true
(= "foo" "bar" "foo") = nil
(= "foo" foo "foo") = nil
(= [1,2,3] [1,2,3]) = true
(= [1,2,3] [1,2,3] [1 2 3] (list 1 2 3)) = true
(= [1,2,3] [1,2,3] [1 2 3] (list 1 2 3 4)) = nil
(= [1, "two", true] [1, "two", true]) = true
(= [1, ["two", 2.5], true] [1, ["two", 2.5], true]) = true
(= [1, ["two", 2.5], true] [1, ["two", 2.5, 1], true]) = nil
10 == 11 nil
nil
true
nil
not op should ignore excess args true
not op should ignore excess args nil
nil
true
true
nil
