the quick brown fox
jumps over the lazy dog
308
(error "I'm going to break flow")
24
("something" "other")
(+ "this ought to" "fail if evaluated")
6
(gen ...)
10
50
6
15
16
3
5
16
"Defining the plusten"
27
"Defining plusthirteen"
20
